%YAML 1.1
%TAG !u! tag:unity3d.com,2011:
--- !u!1045 &1
EditorBuildSettings:
  m_ObjectHideFlags: 0
  serializedVersion: 2
  m_Scenes:
  - enabled: 1
    path: Assets/Scenes/MenuPrincipal.unity
    guid: a94c8cd99db52ba48853cecc529b6e44
  - enabled: 1
    path: Assets/Scenes/howTolPLay.unity
    guid: 7289e19f709fec14e8e3ea4175a7fd06
  - enabled: 1
    path: Assets/Scenes/Nivel1/OPO42.unity
    guid: 22cf56d7a50c43947b8ef2c6f12800b6
  - enabled: 1
    path: Assets/Scenes/Nivel1/GameOverNivel1.unity
    guid: 1e7c68a10e39c884eacbcd97a59433e9
  - enabled: 1
    path: Assets/Scenes/Nivel2/ParagemOnline.unity
    guid: 44377ca2d6527c74d979657886cd21fd
  - enabled: 1
    path: Assets/Scenes/Nivel2/GameOverTimer.unity
    guid: cc231745f58d74343bbbe801707f4c9c
  - enabled: 1
    path: Assets/Scenes/Nivel3/KillGuys.unity
    guid: 2cda990e2423bbf4892e6590ba056729
  - enabled: 1
    path: Assets/Scenes/Nivel3/GameOverNivel2.unity
    guid: ce7dc2cee9fc78546b82640a399e17e8
  - enabled: 1
    path: Assets/Scenes/Nivel4/AirTimer.unity
    guid: 879b91e2755c6f646bd8bc9a3c53f969
  - enabled: 1
    path: Assets/Scenes/Nivel4/GameOverNivel3.unity
    guid: 74c3c0828f66012448c2fb71203cd5ef
  - enabled: 1
    path: Assets/Scenes/Nivel5/SOW.unity
    guid: a5b735c720ac8ce44aff30c48d7215cb
  - enabled: 1
    path: Assets/Scenes/Nivel5/GameOverNivel3 1.unity
    guid: 47ebf2420c608d74a8366958c121b0b3
  m_configObjects: {}
